<?xml version="1.0" encoding="UTF-8" standalone="no"?>
<svg
   xmlns:dc="http://purl.org/dc/elements/1.1/"
   xmlns:cc="http://creativecommons.org/ns#"
   xmlns:rdf="http://www.w3.org/1999/02/22-rdf-syntax-ns#"
   xmlns:svg="http://www.w3.org/2000/svg"
   xmlns="http://www.w3.org/2000/svg"
   xmlns:sodipodi="http://sodipodi.sourceforge.net/DTD/sodipodi-0.dtd"
   xmlns:inkscape="http://www.inkscape.org/namespaces/inkscape"
   inkscape:version="1.0 (4035a4f, 2020-05-01)"
   sodipodi:docname="logo-movici.svg"
   id="svg110"
   version="1.1"
   viewBox="0 0 299.677 116.629"
   height="116.629"
   width="299.677">
  <metadata
     id="metadata114">
    <rdf:RDF>
      <cc:Work
         rdf:about="">
        <dc:format>image/svg+xml</dc:format>
        <dc:type
           rdf:resource="http://purl.org/dc/dcmitype/StillImage" />
        <dc:title></dc:title>
      </cc:Work>
    </rdf:RDF>
  </metadata>
  <sodipodi:namedview
     inkscape:current-layer="svg110"
     inkscape:window-maximized="0"
     inkscape:window-y="23"
     inkscape:window-x="0"
     inkscape:cy="58.314499"
     inkscape:cx="149.8385"
     inkscape:zoom="1.6701291"
     showgrid="false"
     id="namedview112"
     inkscape:window-height="480"
     inkscape:window-width="819"
     inkscape:pageshadow="2"
     inkscape:pageopacity="0"
     guidetolerance="10"
     gridtolerance="10"
     objecttolerance="10"
     borderopacity="1"
     bordercolor="#666666"
     pagecolor="#ffffff" />
  <defs
     id="defs12">
    <style
       id="style10">.a{fill:#353d4d;}.b{fill:#1e92d1;}</style>
  </defs>
  <g
     id="g108"
     transform="translate(-88.322 -172.083)">
    <g
       id="g20"
       transform="translate(118.982 241.038)">
      <path
         id="path14"
         transform="translate(-156.495 -325.403)"
         d="M179.644,327.606a1.219,1.219,0,0,0,1.248-.874.808.808,0,0,0-.416-1,2.508,2.508,0,0,0-1.52-.313,2.863,2.863,0,0,0-2.375,1.955c-.173.43-.327.906-.481,1.382-.447,1.306-1.2,3.516-1.856,5.158-.306-.7-.4-1.1-.607-1.64-.353-.913-.682-1.827-1.039-2.715a1.3,1.3,0,0,0-1.844-.864,1.272,1.272,0,0,0-.952,1.039,2.927,2.927,0,0,0,.224.973,28.137,28.137,0,0,1,1.934,5.524c-.319.193-.691.458-1.134.786-.268.2-.522.385-.667.47a5.616,5.616,0,0,1-2.072.866c-.163.005-.656.02-1-.921a4.309,4.309,0,0,1-.11-2.334l.013-.079c.105-.615.208-1.216.3-1.824a.994.994,0,0,0-.234-.8,1.008,1.008,0,0,0-.748-.34,1.547,1.547,0,0,0-1.5,1.288,19.77,19.77,0,0,1-2.03,4.8c-.51.97-1.688,2.414-2.59,2.435a1.29,1.29,0,0,1-1.22-1.009,7.377,7.377,0,0,1,.124-3.569c.443-1.87,1.336-4.417,3.088-5.938a3.068,3.068,0,0,1,2.118-.9,1.786,1.786,0,0,1,1.469.523,3.143,3.143,0,0,1,.452.872l.063.178c.064.183.128.36.228.582a.667.667,0,0,0,.658.3c.6-.122.671-.754.7-.972a3.511,3.511,0,0,0-.8-2.689,3.094,3.094,0,0,0-2.506-.981,6.2,6.2,0,0,0-3.933,1.651,13.54,13.54,0,0,0-3.929,7.7c-.2,1.127-.535,3.908.724,5.39a2.65,2.65,0,0,0,2.126.916h.058a5.682,5.682,0,0,0,3.419-1.6,11.734,11.734,0,0,0,1.8-2.357,6.884,6.884,0,0,0,.865,1.112,2.84,2.84,0,0,0,2.082.77,4.3,4.3,0,0,0,1.77-.508l.05-.023a9.339,9.339,0,0,0,1.2-.641A12.978,12.978,0,0,0,172.466,338c.067.177.14.358.227.553a1.361,1.361,0,0,0,1.466.561,1.533,1.533,0,0,0,1.091-.98,20.37,20.37,0,0,0,.637-2.077c.521-1.92,1.1-3.749,1.764-5.61C178.234,328.812,178.462,327.721,179.644,327.606Z"
         class="a" />
      <path
         id="path16"
         transform="translate(-183.475 -326.407)"
         d="M214.479,336.737a11.41,11.41,0,0,0-1.3.053,7.912,7.912,0,0,1-1.73.023,2.311,2.311,0,0,1-1.152-.544,2.252,2.252,0,0,1-.521-1.138c.217-.191.38-.328.594-.5a11.522,11.522,0,0,0,3-3.3,4.941,4.941,0,0,0,.668-2.542,1.647,1.647,0,0,0-2.029-1.55,5.467,5.467,0,0,0-3.334,1.636,5.1,5.1,0,0,0-1.328,2.363,18.686,18.686,0,0,0-.311,2c-.041.344-.046.587-.062.929-.377.3-.647.524-1.02.8a1.438,1.438,0,0,0-.426.916.733.733,0,0,0,.806.8,2.752,2.752,0,0,0,.769-.123c.263.241.526.483.811.746a4.932,4.932,0,0,0,4.053,1.11,5.216,5.216,0,0,0,2.348-.714.957.957,0,0,0,.431-.552A.3.3,0,0,0,214.479,336.737Zm-5.052-5.383a2.616,2.616,0,0,1,1.5-1.773c.486-.193.9.034.8.626a3.238,3.238,0,0,1-.62,1.323,5.318,5.318,0,0,1-1.912,1.546A5.868,5.868,0,0,1,209.427,331.354Z"
         class="a" />
      <path
         id="path18"
         transform="translate(-194.531 -326.408)"
         d="M239.98,332.115c-.251-.8-1.135-.3-2.574.6a17.89,17.89,0,0,1-5.985,2.378c-.935.1-1.917.173-2.507-.644a2.372,2.372,0,0,1-.4-1.639,3.541,3.541,0,0,1,1.941-2.553,10.548,10.548,0,0,1,2.142-.662,1.146,1.146,0,0,0,.772-.8,1.182,1.182,0,0,0-.264-.9,1.972,1.972,0,0,0-2.512-.385,12.857,12.857,0,0,0-2.921,1.957,6.392,6.392,0,0,0-2.022,3.932,3.26,3.26,0,0,0,.683,2.591,5.114,5.114,0,0,0,4.479,1.293,15.438,15.438,0,0,0,3.886-1.024,20.616,20.616,0,0,0,3.669-1.9C239.391,333.674,240.209,332.892,239.98,332.115Z"
         class="a" />
    </g>
    <g
       id="g86"
       transform="translate(170.652 236.143)">
      <g
         id="g82"
         transform="translate(63.258 0.788)">
        <g
           id="g38"
           transform="translate(0.256)">
          <path
             id="path22"
             transform="translate(-412.603 -317.793)"
             d="M412.6,319.037h5.3v19.249h9.527v4.157H412.6Z"
             class="b" />
          <path
             id="path24"
             transform="translate(-433.963 -325.002)"
             d="M451.422,344.906c0-3.994,3.666-5.5,8.9-5.5h1.932v-.688c0-2.03-.622-3.143-2.783-3.143A2.581,2.581,0,0,0,456.561,338h-4.485c.295-4.059,3.5-5.86,7.693-5.86s7.169,1.7,7.169,6.351v11.163h-4.616v-2.063a5.82,5.82,0,0,1-5.172,2.422C454.041,350.013,451.422,348.507,451.422,344.906Zm10.836-1.244v-1.44h-1.834c-2.75,0-4.354.589-4.354,2.422,0,1.244.753,2.063,2.488,2.063C460.654,346.707,462.258,345.561,462.258,343.662Z"
             class="b" />
          <path
             id="path26"
             transform="translate(-466.605 -317.793)"
             d="M510.744,319.037h8.381c5.532,0,9.035,2.259,9.035,7.1v.131c0,3.535-2.062,5.4-4.812,6.22l6.187,9.952H523.9l-5.6-9.035h-2.291v9.035h-5.271Zm8.25,10.77c2.652,0,3.994-1.113,3.994-3.372V326.3c0-2.39-1.441-3.208-3.994-3.208h-2.979v6.711Z"
             class="b" />
          <path
             id="path28"
             transform="translate(-491.594 -316.271)"
             d="M556.158,332.574v-.262a8.5,8.5,0,0,1,8.806-8.9c4.419,0,8.348,2.586,8.348,8.708v1.31H560.97c.131,2.848,1.669,4.485,4.256,4.485,2.193,0,3.274-.949,3.568-2.39h4.485c-.556,3.7-3.5,5.761-8.184,5.761C559.922,341.281,556.158,338.041,556.158,332.574Zm12.538-2.063c-.164-2.587-1.473-3.83-3.732-3.83-2.128,0-3.568,1.407-3.929,3.83Zm-3.863-14.24h4.976l-3.4,5.2h-3.437Z"
             class="b" />
          <path
             id="path30"
             transform="translate(-515.934 -325.002)"
             d="M600.522,350.013h4.714c.295,1.506,1.375,2.488,3.8,2.488,2.881,0,4.321-1.506,4.321-4.19v-2.586a6.423,6.423,0,0,1-5.5,3.175c-4.158,0-7.464-3.11-7.464-8.184v-.229c0-4.911,3.274-8.348,7.53-8.348a5.753,5.753,0,0,1,5.434,2.946v-2.554h4.714v15.779c-.032,5.074-3.4,7.661-9.035,7.661C603.5,355.971,600.981,353.549,600.522,350.013Zm12.964-9.362v-.229c0-2.913-1.539-4.681-4.125-4.681-2.652,0-4.125,1.9-4.125,4.714v.262c0,2.848,1.669,4.616,4.027,4.616C611.751,345.332,613.486,343.564,613.486,340.65Z"
             class="b" />
          <path
             id="path32"
             transform="translate(-542.825 -316.311)"
             d="M649.262,318.93a2.7,2.7,0,1,1,2.685,2.586A2.594,2.594,0,0,1,649.262,318.93Zm.36,4.91h4.714v17.121h-4.714Z"
             class="b" />
          <path
             id="path34"
             transform="translate(-553.431 -325.002)"
             d="M668.536,341.272v-.262c0-5.369,3.9-8.871,9.035-8.871s9,3.437,9,8.773v.262c0,5.4-3.9,8.839-9.036,8.839C672.432,350.013,668.536,346.608,668.536,341.272Zm13.226-.066v-.229c0-3.274-1.539-5.238-4.19-5.238-2.619,0-4.19,1.9-4.19,5.173v.262c0,3.274,1.506,5.238,4.19,5.238C680.223,346.412,681.762,344.448,681.762,341.207Z"
             class="b" />
          <path
             id="path36"
             transform="translate(-579.914 -325.002)"
             d="M716.665,332.532h4.747v2.717a5.915,5.915,0,0,1,5.565-3.11c3.372,0,5.762,2.03,5.762,6.613v10.9h-4.747V339.439c0-2.324-.917-3.437-3.012-3.437-2.03,0-3.568,1.244-3.568,3.764v9.887h-4.747Z"
             class="b" />
        </g>
        <g
           id="g80"
           transform="translate(0 36.468)">
          <path
             id="path40"
             transform="translate(-412.033 -398.425)"
             d="M415.739,399.3h1.718l3.646,10.772h-1.3l-1.055-3.1h-4.445l-1.039,3.1h-1.235Zm-1.07,6.629h3.737l-1.868-5.544Z"
             class="b" />
          <path
             id="path42"
             transform="translate(-424.3 -401.964)"
             d="M434.327,410.718v-4.987h1.25v4.927c0,1.386.588,2,1.823,2a2.073,2.073,0,0,0,2.17-2.154v-4.776h1.25v7.88h-1.25v-1.25a2.691,2.691,0,0,1-2.5,1.386C435.5,413.746,434.327,412.887,434.327,410.718Z"
             class="b" />
          <path
             id="path44"
             transform="translate(-433.677 -401.964)"
             d="M451.368,405.731h1.356l2.335,6.614,2.305-6.614h1.3l-2.833,7.88h-1.6Z"
             class="b" />
          <path
             id="path46"
             transform="translate(-443.048 -401.798)"
             d="M468.4,409.587v-.121a3.709,3.709,0,0,1,3.691-4.038c1.823,0,3.541,1.1,3.541,3.917v.407h-5.936c.06,1.793.919,2.787,2.531,2.787,1.22,0,1.929-.452,2.094-1.371h1.251c-.271,1.582-1.582,2.411-3.36,2.411A3.7,3.7,0,0,1,468.4,409.587Zm5.952-.843c-.121-1.628-.964-2.275-2.26-2.275a2.362,2.362,0,0,0-2.35,2.275Z"
             class="b" />
          <path
             id="path48"
             transform="translate(-453.786 -401.798)"
             d="M487.912,405.565h1.251v1.416a2.75,2.75,0,0,1,2.591-1.552V406.6c-1.582.076-2.591.573-2.591,2.516v4.324h-1.251Z"
             class="b" />
          <path
             id="path50"
             transform="translate(-459.148 -401.798)"
             d="M497.823,413.9h1.28c.181.9.934,1.371,2.275,1.371a2.217,2.217,0,0,0,2.531-2.426V411.7a3.265,3.265,0,0,1-2.667,1.492,3.549,3.549,0,0,1-3.586-3.736v-.106a3.729,3.729,0,0,1,3.676-3.917,2.823,2.823,0,0,1,2.577,1.4v-1.266h1.25v7.352c-.015,2.29-1.567,3.405-3.767,3.405C499.058,416.322,498.034,415.222,497.823,413.9Zm6.132-4.535v-.106c0-1.763-.964-2.787-2.5-2.787-1.567,0-2.5,1.16-2.5,2.817v.121a2.486,2.486,0,0,0,2.426,2.742A2.536,2.536,0,0,0,503.955,409.362Z"
             class="b" />
          <path
             id="path52"
             transform="translate(-470.785 -401.798)"
             d="M518.806,405.565h1.25v1.251a2.707,2.707,0,0,1,2.531-1.387c1.627,0,2.772.889,2.772,3.179v4.836h-1.25v-4.927c0-1.386-.588-2-1.853-2a2.073,2.073,0,0,0-2.2,2.154v4.776h-1.25Z"
             class="b" />
          <path
             id="path54"
             transform="translate(-480.602 -401.798)"
             d="M536.647,409.587v-.121a3.709,3.709,0,0,1,3.692-4.038c1.823,0,3.54,1.1,3.54,3.917v.407h-5.936c.06,1.793.919,2.787,2.531,2.787,1.221,0,1.929-.452,2.094-1.371h1.25c-.271,1.582-1.582,2.411-3.36,2.411A3.7,3.7,0,0,1,536.647,409.587Zm5.952-.843c-.12-1.628-.964-2.275-2.26-2.275a2.362,2.362,0,0,0-2.35,2.275Z"
             class="b" />
          <path
             id="path56"
             transform="translate(-491.288 -405.817)"
             d="M556.067,412.732h3.224v1.175h-3.224Z"
             class="b" />
          <path
             id="path58"
             transform="translate(-497.856 -398.425)"
             d="M568,399.3h3.239c2.064,0,3.767.844,3.767,3v.06a2.9,2.9,0,0,1-2.667,2.938l3.3,4.776H574.18l-3.209-4.686h-1.657v4.686H568Zm3.329,5.048c1.537,0,2.366-.663,2.366-1.989v-.06c0-1.461-.9-1.943-2.366-1.943h-2.019v3.993Z"
             class="b" />
          <path
             id="path60"
             transform="translate(-508.768 -397.356)"
             d="M587.834,397.356h1.251v5.017a2.707,2.707,0,0,1,2.531-1.387c1.627,0,2.772.889,2.772,3.179V409h-1.251v-4.927c0-1.386-.587-2-1.853-2a2.073,2.073,0,0,0-2.2,2.154V409h-1.251Z"
             class="b" />
          <path
             id="path62"
             transform="translate(-518.55 -397.651)"
             d="M605.612,405.425V405.3a3.875,3.875,0,1,1,7.744-.015v.121a3.875,3.875,0,1,1-7.744.015Zm6.448,0v-.106c0-1.823-1.009-3-2.576-3-1.582,0-2.577,1.175-2.577,2.983v.121c0,1.793.98,2.968,2.577,2.968C611.066,408.393,612.06,407.2,612.06,405.425Zm-3.134-7.533h1.13l1.612,2.17h-.919l-1.281-1.13-1.28,1.13H607.3Z"
             class="b" />
          <path
             id="path64"
             transform="translate(-529.9 -401.798)"
             d="M626.238,405.565h1.25v1.251a2.707,2.707,0,0,1,2.531-1.387c1.627,0,2.772.889,2.772,3.179v4.836h-1.25v-4.927c0-1.386-.588-2-1.853-2a2.073,2.073,0,0,0-2.2,2.154v4.776h-1.25Z"
             class="b" />
          <path
             id="path66"
             transform="translate(-539.717 -401.798)"
             d="M644.079,409.587v-.121a3.709,3.709,0,0,1,3.692-4.038c1.823,0,3.54,1.1,3.54,3.917v.407h-5.936c.06,1.793.919,2.787,2.531,2.787,1.221,0,1.929-.452,2.094-1.371h1.25c-.271,1.582-1.582,2.411-3.36,2.411A3.7,3.7,0,0,1,644.079,409.587Zm5.952-.843c-.12-1.628-.964-2.275-2.26-2.275a2.362,2.362,0,0,0-2.35,2.275Z"
             class="b" />
          <path
             id="path68"
             transform="translate(-550.403 -405.817)"
             d="M663.5,412.732h3.224v1.175H663.5Z"
             class="b" />
          <path
             id="path70"
             transform="translate(-555.548 -398.425)"
             d="M676.555,399.3h1.718l3.646,10.772h-1.3l-1.055-3.1h-4.445l-1.039,3.1h-1.235Zm-1.07,6.629h3.737l-1.868-5.544Z"
             class="b" />
          <path
             id="path72"
             transform="translate(-568.268 -397.356)"
             d="M695.967,397.356h1.266V409h-1.266Z"
             class="b" />
          <path
             id="path74"
             transform="translate(-572.27 -401.798)"
             d="M703.239,405.565h1.251v1.326a3.241,3.241,0,0,1,2.667-1.462c2.064,0,3.586,1.507,3.586,3.963v.121c0,2.411-1.416,4.068-3.586,4.068a2.986,2.986,0,0,1-2.667-1.432v4.038h-1.251Zm6.207,4.008v-.121c0-1.989-1.1-2.983-2.426-2.983-1.462,0-2.577.964-2.577,2.983v.121c0,2.019,1.055,2.968,2.591,2.968C708.6,412.54,709.446,411.486,709.446,409.573Z"
             class="b" />
          <path
             id="path76"
             transform="translate(-582.734 -401.798)"
             d="M722.257,409.587v-.121a3.709,3.709,0,0,1,3.691-4.038c1.823,0,3.54,1.1,3.54,3.917v.407h-5.936c.06,1.793.919,2.787,2.531,2.787,1.221,0,1.928-.452,2.094-1.371h1.25c-.271,1.582-1.582,2.411-3.36,2.411A3.7,3.7,0,0,1,722.257,409.587Zm5.952-.843c-.121-1.628-.964-2.275-2.26-2.275a2.362,2.362,0,0,0-2.35,2.275Z"
             class="b" />
          <path
             id="path78"
             transform="translate(-592.766 -401.798)"
             d="M740.488,411.019h1.22c.09.934.587,1.521,1.853,1.521,1.19,0,1.718-.407,1.718-1.25s-.618-1.1-1.838-1.326c-2.049-.377-2.742-.949-2.742-2.32a2.453,2.453,0,0,1,2.667-2.215,2.516,2.516,0,0,1,2.847,2.275h-1.205c-.181-.859-.663-1.235-1.657-1.235-.9,0-1.491.452-1.491,1.13,0,.708.392.995,1.838,1.251,1.627.3,2.772.663,2.772,2.335,0,1.432-.979,2.4-2.893,2.4C741.693,413.58,740.563,412.631,740.488,411.019Z"
             class="b" />
        </g>
      </g>
      <path
         id="path84"
         transform="translate(-271.381 -314.518)"
         d="M297.665,314.518A26.284,26.284,0,1,0,323.949,340.8,26.284,26.284,0,0,0,297.665,314.518Zm1.547,11.078h2.512l10.761,18.463-2.51,1.454-9.51-16.3-4.676,8.029-2.506-1.46ZM282.286,351.4l-2.5-1.463,6.7-11.462.106-.183h2.584a8.143,8.143,0,0,0,12.162-.347l2.145,1.943a11.033,11.033,0,0,1-15.3,1.41l-1.034,1.774.012,0Zm31.725,0H287.5v-2.9h26.51Z"
         class="b" />
    </g>
    <g
       id="g106"
       transform="translate(88.322 172.083)">
      <g
         id="g90"
         transform="translate(186.486 2.658)">
        <path
           id="path88"
           transform="translate(-502.968 -177.993)"
           d="M507.14,177.993h11.6l-7.6,11.581h-8.177Z"
           class="a" />
      </g>
      <path
         id="path92"
         transform="translate(-188.516 -172.083)"
         d="M296.871,185.126a13.419,13.419,0,1,1-13.419,13.419,13.434,13.434,0,0,1,13.419-13.419m0-13.043a26.461,26.461,0,1,0,26.461,26.461,26.461,26.461,0,0,0-26.461-26.461Z"
         class="a" />
      <g
         id="g104"
         transform="translate(0 1.033)">
        <path
           id="path94"
           transform="translate(-88.322 -174.379)"
           d="M88.322,175.494H101.8v7.439a16.536,16.536,0,0,1,14.878-8.554c6.416,0,11.251,2.7,13.576,8.462a19.318,19.318,0,0,1,16.365-8.462c9.02,0,15.993,5.672,15.993,18.6v31.15h-13.39V194.463c0-6.229-2.79-9.019-7.625-9.019-5.207,0-9.391,3.347-9.391,9.949v28.733h-13.39V194.463c0-6.229-2.882-9.019-7.625-9.019-5.207,0-9.392,3.347-9.392,9.949v28.733H88.322Z"
           class="a" />
        <path
           id="path96"
           transform="translate(-253.164 -175.744)"
           d="M387.9,176.859h14.413l11.623,34.777,11.53-34.777h13.018l-17.667,48.632H405.658Z"
           class="a" />
        <path
           id="path98"
           transform="translate(-343.14 -175.744)"
           d="M551.416,176.859h13.39v48.632h-13.39Z"
           class="b" />
        <path
           id="path100"
           transform="translate(-369.873 -174.379)"
           d="M600,200.414v-.743c0-15.715,11.251-25.292,25.106-25.292,11.251,0,21.666,4.928,22.875,18.876H635.241c-.93-5.672-4.371-8.276-9.857-8.276-6.974,0-11.623,5.207-11.623,14.506v.744c0,9.764,4.37,14.785,11.9,14.785,5.393,0,9.763-3.162,10.414-9.392h12.181c-.744,11.53-9.113,19.527-23.247,19.527C610.786,225.149,600,216.315,600,200.414Z"
           class="b" />
        <path
           id="path102"
           transform="translate(-438.585 -175.744)"
           d="M724.872,176.859h13.39v48.632h-13.39Z"
           class="b" />
      </g>
    </g>
  </g>
</svg>
