<?xml version="1.0" encoding="UTF-8" standalone="no"?>
<svg
   xmlns:dc="http://purl.org/dc/elements/1.1/"
   xmlns:cc="http://creativecommons.org/ns#"
   xmlns:rdf="http://www.w3.org/1999/02/22-rdf-syntax-ns#"
   xmlns:svg="http://www.w3.org/2000/svg"
   xmlns="http://www.w3.org/2000/svg"
   xmlns:sodipodi="http://sodipodi.sourceforge.net/DTD/sodipodi-0.dtd"
   xmlns:inkscape="http://www.inkscape.org/namespaces/inkscape"
   inkscape:version="1.0 (4035a4f, 2020-05-01)"
   sodipodi:docname="man.svg"
   id="svg1738"
   version="1.1"
   viewBox="0 0 479.99999 310.00001"
   height="310"
   width="480">
  <metadata
     id="metadata1742">
    <rdf:RDF>
      <cc:Work
         rdf:about="">
        <dc:format>image/svg+xml</dc:format>
        <dc:type
           rdf:resource="http://purl.org/dc/dcmitype/StillImage" />
        <dc:title></dc:title>
      </cc:Work>
    </rdf:RDF>
  </metadata>
  <sodipodi:namedview
     inkscape:current-layer="g1734"
     inkscape:window-maximized="0"
     inkscape:window-y="23"
     inkscape:window-x="0"
     inkscape:cy="150.11401"
     inkscape:cx="233.91"
     inkscape:zoom="1.6354236"
     showgrid="false"
     id="namedview1740"
     inkscape:window-height="862"
     inkscape:window-width="1920"
     inkscape:pageshadow="2"
     inkscape:pageopacity="0"
     guidetolerance="10"
     gridtolerance="10"
     objecttolerance="10"
     borderopacity="1"
     bordercolor="#666666"
     pagecolor="#ffffff"
     inkscape:document-rotation="0" />
  <defs
     id="defs1628">
    <style
       id="style1626">.a,.f,.k,.l,.n,.o,.p{fill:none;}.a,.c,.f,.h,.i,.j,.k,.l,.m,.n,.o,.p,.q{stroke:#353c4f;}.a,.f,.h,.i,.k,.l,.m,.n,.q{stroke-linecap:round;}.a,.c,.f,.h,.i,.j,.k,.o,.p{stroke-miterlimit:10;}.a,.c,.h,.l,.m,.p{stroke-width:2px;}.b{fill:#f5f5f5;}.c,.h,.i,.j,.m,.q{fill:#fff;}.d{fill:#5eb866;}.e{fill:#0096de;}.g{fill:#353c4f;}.k{stroke-width:0.969px;}.l,.m,.n,.q{stroke-linejoin:round;}</style>
  </defs>
  <g
     id="g1736"
     transform="translate(0.914,1.047)">
    <g
       id="g1734"
       transform="translate(0,93.334)">
      <path
         id="path1630"
         d="m 253.52485,60.617208 c 0,0 -17.414,-16.399997 -20.634,-19.681997 -2.546,-2.59 -16.793,-16.989 -16.793,-16.989 0,0 1.21,-5.846 -2.282,-9.127 a 118.377,118.377 0 0 0 -10.683,-8.2 l -10.647,-7.9709999"
         class="a" />
      <path
         id="path1632"
         d="m 405.70285,107.06021 c 0,0 -81.139,8.852 -106.207,7.579 -25.068,-1.273 -71.122,-6.376 -107.172,-3.6 -36.05,2.776 -48.01,2.986 -81.238,12.686 -33.228,9.7 -197.104,79.568 36.966,84.322 234.07,4.754 244.18,-4.409 274.6,-12.613 30.42,-8.204 105.38,-85.308 -16.949,-88.374 z"
         class="b" />
      <path
         id="path1634"
         d="m 178.60685,109.29521 24.652,-0.463 52.139,34.167 -163.321,-1.526"
         class="c" />
      <path
         id="path1636"
         d="m 330.25985,137.90021 c 1.324,0.621 10.521,4.773 25.913,7.848 16.682,3.33 26.135,2.776 26.135,2.776 0,0 15.014,-11.1 25.857,-46.071 11.133,-35.880002 5,-62.167999 5,-62.167999 0,0 -7.429,-9.181 -25.022,-16.1 -18.35,-7.216 -19.863,-6.816 -19.863,-6.816 l -0.066,0.344 c 14.813,35.335997 -2.781,82.661999 -31.985,114.444999 -1.079,1.165 -2.158,2.275 -3.27,3.319 -0.886,0.846 -1.787,1.657 -2.699,2.423 z"
         class="d" />
      <path
         id="path1638"
         d="m 344.83185,122.64721 c 24.586,-31.280002 37.41,-72.293002 23.911,-104.492999 a 67.829,67.829 0 0 0 -18.642,-24.8169999 c -14.135,-11.9340001 -42.138,-20.7480001 -42.138,-20.7480001 h 0.005 c 0,0 -13.913,20.3690001 -25.792,18.0480001 -8.539,-1.6680001 -5.383,-9.2570001 -5.383,-9.2570001 0,0 -12.661,15.0660001 -15.439,20.647 -4.837,9.711 -5.675,21.67 -5.675,21.67 l -3,27.591997 c 0,0 0.02,6.405 0.18,9.219 0.16,2.814 0.986,11.563 0.986,11.563 0,0 41.88,15.3 62.591,29.944002 20.449,14.456 28.396,20.632 28.396,20.632 z"
         class="e" />
      <path
         id="path1640"
         d="m 203.24785,19.149211 a 4.993,4.993 0 0 0 2.474,2.222 7.563,7.563 0 0 0 2.844,0.988"
         class="f" />
      <path
         id="path1642"
         d="m 204.03785,16.566211 -20.161,-31.36 -2.6,1.482 19.038,32.66 z"
         class="g" />
      <path
         id="path1644"
         d="m 225.30285,60.544208 c -4.931,-6.358 -19.471,-26.114997 -19.471,-26.114997 0,0 -5.547,-3.577 -9.245,-5.851 a 20.97,20.97 0 0 1 -8.629,-10.478 c -1.644,-4.512 -0.411,-7.588 0,-8 l 0.411,-0.41 -0.621,-2.359 a 6.838,6.838 0 0 1 0.391,-4.578 l 1.258,-2.76099997 c 0,0 2.907,0.017 2.876,1.86899997 a 10.53,10.53 0 0 1 -0.9,3.7 l 0.372,1.235"
         class="h" />
      <path
         id="path1646"
         d="m 199.43185,26.569211 c 0.124,-1.112 0,-3.951 0,-3.951 a 47.547,47.547 0 0 0 3.931,-4.729 c 1.113,-1.729 1,-4.79 0.008,-4.3 -0.992,0.49 -4.329,3.087 -4.329,3.087 l -3.778,3.652 -0.595,1.263"
         class="i" />
      <path
         id="path1648"
         d="m 192.27185,19.889211 c 0,0 5.534,-3.951 7.636,-5.927 a 3.737,3.737 0 0 0 1.1,-3.765 0.583,0.583 0 0 0 -0.835,-0.373 l -9.8,5"
         class="i" />
      <path
         id="path1650"
         d="m 191.71985,14.136211 c 0,0 1.633,-2.4 3.545,-4.617 a 5.7,5.7 0 0 0 1.671,-4.078 c 0,0 -0.495,-1.358 -2.844,0 a 50.486,50.486 0 0 0 -5.727,4.249"
         class="j" />
      <path
         id="path1652"
         d="M 264.88985,-14.788789"
         class="k" />
      <path
         id="path1654"
         d="M 307.80085,-27.160789"
         class="k" />
      <path
         id="path1656"
         d="m 101.92385,110.06521 c 0,0 -60.162,-1.726 -60.85,2.375 -0.688,4.101 3.152,14.987 3.152,14.987"
         class="c" />
      <path
         id="path1658"
         d="m 282.58785,-64.995789 c -9.453,-4.441 -10.843,5.984 -20.018,6.839 -10.2,0.966 -16.616,-2.3 -20.385,-7.305 -2.647,-3.519 -5.349,-11.757 -5.605,-12.556 a 0.305,0.305 0 0 0 -0.023,-0.066 c -0.044,0.011 -0.033,0.033 0.023,0.066 0.856,0.389 10.944,-4.12 16.727,-6.594 5.839,-2.5 16.893,-8.258995 30.861,-3.741 10.1,3.253 13.691,15.187 13.491,20.815 a 12.706,12.706 0 0 1 -3.46,8.015"
         class="l" />
      <path
         id="path1660"
         d="m 89.50485,121.90721 c -2.685,1.931 -12.289,8.855 -12.289,8.855 0,0 -38.735,-8.259 -39.558,-0.622 -1.668,15.243 45.015,23.076 48.511,19.15 a 29.4,29.4 0 0 0 4.634,-7.4 c 1.969,-0.485 4.379,-1.688 11.793,-5.389"
         class="m" />
      <path
         id="path1662"
         d="m 308.21685,-27.156789 -9.186,-22.2 c 0,0 7.084,-4.3 2.925,-9.847 -3.136,-4.2 -7.418,-0.611 -7.763,-0.311 l -0.023,0.022"
         class="l" />
      <path
         id="path1664"
         d="M 350.35685,-6.4077889"
         class="n" />
      <path
         id="path1666"
         d="M 368.21685,17.715211"
         class="n" />
      <path
         id="path1668"
         d="M 344.89285,121.83721"
         class="n" />
      <path
         id="path1670"
         d="m 252.94185,71.719208 c -21.8,-8.683 -46.851,-17.557 -57.473,-17.557 -11.092,0 -87.69,51.131002 -107.447,65.339002 l 16.126,19.243 c 12.412,-2.808 30.511,-7.933 42.02,-12.789 19.273,-8.149 47.077,-26.278002 47.077,-26.278002 0,0 83.129,84.016002 137.014,38.223002 0.912,-0.766 1.813,-1.577 2.7,-2.421 1.112,-1.043 2.191,-2.154 3.27,-3.319 3.018,-3.285 5.575,-6.3 8.322,-9.884"
         class="m" />
      <path
         id="path1672"
         d="M 243.58185,66.144208"
         class="o" />
      <path
         id="path1674"
         d="M 237.36485,25.664211"
         class="o" />
      <path
         id="path1676"
         d="m 39.59785,136.24521 c 0,0 -15.987,0.278 -19.255,0.458 l -5.122,-12.329 c 0,0 -12.4410005,-31.032002 -7.7000005,-33.583002 4.8190005,-2.59 23.5390005,24.238002 23.5390005,24.238002 l 10.2,-0.555"
         class="p" />
      <path
         id="path1678"
         d="m 291.30385,-47.605789 c 0,0 -3.136,25.525 -19.7,25.525 -13.366,0 -18.991,-30.023 -19.36,-33.423 -0.459,-4.226 -0.325,-3.018 -0.325,-3.018"
         class="a" />
      <path
         id="path1680"
         d="M 353.02685,7.901211"
         class="o" />
      <path
         id="path1682"
         d="M 256.77185,72.812208"
         class="n" />
      <path
         id="path1684"
         d="m 349.41985,42.023211 c -8.844,29.387997 -15.749,41.005997 -28.726,51.425997 -9.373,7.526002 -48.384,-23.636 -64.309,-39.316 -15.925,-15.679997 -19.184,-25.068997 -24.119,-31.067997 -3.259,-3.96 -8.452,-3.043 -11.823,-7.049 -3.371,-4.006 -3.242,-14.076 -3.242,-14.076 0,0 -2.158,0.382 -4.743,0.745 -3.692,0.52 -8.256,1 -8.645,0.275 -0.894,-1.662 7.016,-5.5089999 11.628,-6.0939999 a 48.013,48.013 0 0 1 12.23,0 11.923,11.923 0 0 1 5.088,3.44599993 l 12.428,17.18599997 56.722,34.040997 4.459,-16.187997"
         class="m" />
      <path
         id="path1686"
         d="M 255.93285,23.946211"
         class="n" />
      <line
         id="line1688"
         y2="-18.368786"
         x2="277.04886"
         class="l"
         x1="275.39685"
         y1="-22.567787" />
      <path
         id="path1690"
         d="M 229.90485,-58.681789"
         class="n" />
      <path
         id="path1692"
         d="M 242.00985,2.276211"
         class="k" />
      <path
         id="path1694"
         d="m 308.22285,-27.160789 c 0,0 -13.913,20.3690001 -25.791,18.0480001 -8.539,-1.6690001 -5.383,-9.2560001 -5.383,-9.2560001"
         class="a" />
      <path
         id="path1696"
         d="m 310.40085,58.891208 a 38.731,38.731 0 0 0 -8.5,-7.352"
         class="l" />
      <line
         id="line1698"
         y2="-9.6457863"
         x1="207.01985"
         class="q"
         y1="-12.235786"
         x2="197.38185" />
      <line
         id="line1700"
         y2="-15.196789"
         x1="200.53285"
         class="q"
         y1="-22.597786"
         x2="194.60185" />
      <line
         id="line1702"
         y2="-17.702789"
         x1="191.79385"
         class="q"
         y1="-27.121788"
         x2="190.73584" />
    </g>
  </g>
</svg>
