<?xml version="1.0" encoding="UTF-8" standalone="no"?>
<svg
   xmlns:dc="http://purl.org/dc/elements/1.1/"
   xmlns:cc="http://creativecommons.org/ns#"
   xmlns:rdf="http://www.w3.org/1999/02/22-rdf-syntax-ns#"
   xmlns:svg="http://www.w3.org/2000/svg"
   xmlns="http://www.w3.org/2000/svg"
   xmlns:sodipodi="http://sodipodi.sourceforge.net/DTD/sodipodi-0.dtd"
   xmlns:inkscape="http://www.inkscape.org/namespaces/inkscape"
   width="300"
   height="198"
   viewBox="0 0 300 198.00001"
   version="1.1"
   id="svg968"
   sodipodi:docname="sun-cloud.svg"
   inkscape:version="1.0 (4035a4f, 2020-05-01)">
  <metadata
     id="metadata972">
    <rdf:RDF>
      <cc:Work
         rdf:about="">
        <dc:format>image/svg+xml</dc:format>
        <dc:type
           rdf:resource="http://purl.org/dc/dcmitype/StillImage" />
        <dc:title></dc:title>
      </cc:Work>
    </rdf:RDF>
  </metadata>
  <sodipodi:namedview
     inkscape:document-rotation="0"
     pagecolor="#ffffff"
     bordercolor="#666666"
     borderopacity="1"
     objecttolerance="10"
     gridtolerance="10"
     guidetolerance="10"
     inkscape:pageopacity="0"
     inkscape:pageshadow="2"
     inkscape:window-width="920"
     inkscape:window-height="764"
     id="namedview970"
     showgrid="false"
     inkscape:zoom="0.70910507"
     inkscape:cx="146.81247"
     inkscape:cy="111.32879"
     inkscape:window-x="503"
     inkscape:window-y="120"
     inkscape:window-maximized="0"
     inkscape:current-layer="g962" />
  <defs
     id="defs858">
    <style
       id="style856">.a,.f,.k,.l,.n,.o,.p{fill:none;}.a,.c,.f,.h,.i,.j,.k,.l,.m,.n,.o,.p,.q{stroke:#353c4f;}.a,.f,.h,.i,.k,.l,.m,.n,.q{stroke-linecap:round;}.a,.c,.f,.h,.i,.j,.k,.o,.p{stroke-miterlimit:10;}.a,.c,.h,.l,.m,.p{stroke-width:2px;}.b{fill:#f5f5f5;}.c,.h,.i,.j,.m,.q{fill:#fff;}.d{fill:#5eb866;}.e{fill:#0096de;}.g{fill:#353c4f;}.k{stroke-width:0.969px;}.l,.m,.n,.q{stroke-linejoin:round;}</style>
  </defs>
  <g
     transform="matrix(0.90376949,0,0,1.0017709,45.844703,0.08401783)"
     id="g966">
    <g
       transform="translate(0,93.334)"
       id="g964">
      <path
         class="n"
         d="M 343.651,556.156"
         transform="translate(-120.192,-373.756)"
         id="path920" />
      <g
         transform="matrix(0.886964,0,0.01176112,0.81519809,42.190198,-120.59368)"
         id="g962">
        <path
           id="ellipse934"
           style="fill:none;stroke:#353c4f;stroke-width:2px;stroke-linecap:round;stroke-linejoin:round"
           d="m 235.48497,211.88937 a 36.305,36.240002 0 0 1 -36.305,36.24 36.305,36.240002 0 0 1 -36.305,-36.24 36.305,36.240002 0 0 1 36.305,-36.24 36.305,36.240002 0 0 1 36.305,36.24"
           class="l" />
        <path
           class="l"
           d="M 113.76397,74.652361 H 11.235987 a 11.262,11.262 0 0 1 -10.95799884,-8.16 c -0.9999997,-3.721 -0.064,-8.067 6.60699944,-11.571 14.8249994,-7.789 22.8869994,2.6 22.8869994,2.6 0,0 3.121,-11.423 14.3,-11.943 11.179,-0.52 15.344,9.607 15.344,9.607 0,0 11.778,-24.023 34.664985,-15.2 22.886998,8.823 14.489998,22.724 14.489998,22.724 0,0 8.843,-6.49 15.085,0.26 3.121,3.376 1.561,6.3 -0.78,8.373 a 13.7,13.7 0 0 1 -9.112,3.31 z"
           id="path936" />
        <g
           transform="translate(199.17897,152.37037)"
           id="g942">
          <path
             id="line938"
             style="fill:none;stroke:#353c4f;stroke-width:2px;stroke-linecap:round;stroke-linejoin:round"
             d="M 0,0 V 12.113"
             class="l" />
          <path
             id="line940"
             transform="translate(0,106.925)"
             style="fill:none;stroke:#353c4f;stroke-width:2px;stroke-linecap:round;stroke-linejoin:round"
             d="M 0,0 V 12.113"
             class="l" />
        </g>
        <g
           transform="translate(157.01797,169.80337)"
           id="g948">
          <path
             id="line944"
             transform="translate(75.742)"
             style="fill:none;stroke:#353c4f;stroke-width:2px;stroke-linecap:round;stroke-linejoin:round"
             d="M 8.5799999,0 0,8.5649996"
             class="l" />
          <path
             id="line946"
             transform="translate(0,75.607)"
             style="fill:none;stroke:#353c4f;stroke-width:2px;stroke-linecap:round;stroke-linejoin:round"
             d="M 8.5799999,0 0,8.5649996"
             class="l" />
        </g>
        <g
           transform="translate(139.55397,211.88937)"
           id="g954">
          <path
             id="line950"
             style="fill:none;stroke:#353c4f;stroke-width:2px;stroke-linecap:round;stroke-linejoin:round"
             d="M 0,0 H 12.134"
             class="l" />
          <path
             id="line952"
             transform="translate(107.116)"
             style="fill:none;stroke:#353c4f;stroke-width:2px;stroke-linecap:round;stroke-linejoin:round"
             d="M 0,0 H 12.134"
             class="l" />
        </g>
        <g
           transform="translate(157.01797,169.80337)"
           id="g960">
          <path
             id="line956"
             style="fill:none;stroke:#353c4f;stroke-width:2px;stroke-linecap:round;stroke-linejoin:round"
             d="M 0,0 8.5799999,8.5649996"
             class="l" />
          <path
             id="line958"
             transform="translate(75.742,75.607)"
             style="fill:none;stroke:#353c4f;stroke-width:2px;stroke-linecap:round;stroke-linejoin:round"
             d="M 0,0 8.5799999,8.5649996"
             class="l" />
        </g>
      </g>
    </g>
  </g>
</svg>
