<?xml version="1.0" encoding="UTF-8" standalone="no"?>
<svg
   xmlns:dc="http://purl.org/dc/elements/1.1/"
   xmlns:cc="http://creativecommons.org/ns#"
   xmlns:rdf="http://www.w3.org/1999/02/22-rdf-syntax-ns#"
   xmlns:svg="http://www.w3.org/2000/svg"
   xmlns="http://www.w3.org/2000/svg"
   xmlns:sodipodi="http://sodipodi.sourceforge.net/DTD/sodipodi-0.dtd"
   xmlns:inkscape="http://www.inkscape.org/namespaces/inkscape"
   height="323.85257"
   width="1405.4993"
   inkscape:version="1.0 (4035a4f, 2020-05-01)"
   sodipodi:docname="volcano.svg"
   xml:space="preserve"
   viewBox="0 0 1405.4992 323.85257"
   y="0px"
   x="0px"
   id="Calque_1"
   version="1.1"><metadata
   id="metadata17"><rdf:RDF><cc:Work
       rdf:about=""><dc:format>image/svg+xml</dc:format><dc:type
         rdf:resource="http://purl.org/dc/dcmitype/StillImage" /><dc:title></dc:title></cc:Work></rdf:RDF></metadata><defs
   id="defs15" /><sodipodi:namedview
   inkscape:snap-global="false"
   inkscape:snap-nodes="false"
   inkscape:document-rotation="0"
   inkscape:guide-bbox="true"
   showguides="true"
   fit-margin-bottom="0"
   fit-margin-right="0"
   fit-margin-left="0"
   fit-margin-top="0"
   inkscape:current-layer="g903"
   inkscape:window-maximized="0"
   inkscape:window-y="23"
   inkscape:window-x="413"
   inkscape:cy="59.509159"
   inkscape:cx="744.1619"
   inkscape:zoom="0.71"
   showgrid="false"
   id="namedview13"
   inkscape:window-height="1035"
   inkscape:window-width="1615"
   inkscape:pageshadow="2"
   inkscape:pageopacity="0"
   guidetolerance="10"
   gridtolerance="10"
   objecttolerance="10"
   borderopacity="1"
   bordercolor="#666666"
   pagecolor="#ffffff"><sodipodi:guide
     inkscape:locked="false"
     id="guide908"
     orientation="1,0"
     position="757.62158,210.16216" /><sodipodi:guide
     inkscape:locked="false"
     id="guide910"
     orientation="1,0"
     position="1091.8659,71.111574" /></sodipodi:namedview>
<style
   id="style2"
   type="text/css">
	.st0{fill:none;stroke:#353C4F;stroke-miterlimit:10;}
	.st1{fill:none;stroke:#353C4F;stroke-linecap:round;stroke-miterlimit:10;}
</style>
<g
   transform="matrix(-1,0,0,1,1367.6729,-462.2967)"
   id="g10">
	<path
   style="fill:none;stroke:#353c4f;stroke-linecap:round;stroke-miterlimit:10"
   inkscape:connector-curvature="0"
   id="path4"
   d="m 752.1,617.7 c 0,0 19.6,-10.2 38.6,-25 27.7,-21.6 59.1,-50.9 69.1,-55.9 12.5,-6.3 13.2,-1.3 45.6,-4 25.9,-2.2 43.9,-4.6 59.2,-2.6 22.4,2.9 78.3,64.7 136.4,70.6 1,0.1 2.1,0.2 3.1,0.3"
   class="st0" />
	<path
   style="fill:none;stroke:#353c4f;stroke-linecap:round;stroke-miterlimit:10"
   inkscape:connector-curvature="0"
   id="path6"
   d="m 879.1,539.5 c 0,0 -20.5,0.7 -22.1,8.8 -1.2,6.5 10.8,15.7 52.6,15.8 35.1,0.1 68.7,-7.9 69,-17.4 0.4,-10.5 -29.3,-14.9 -53.9,-11.5"
   class="st1" />
	<path
   style="fill:none;stroke:#353c4f;stroke-linecap:round;stroke-miterlimit:10"
   inkscape:connector-curvature="0"
   id="path8"
   d="m 901.4,533.1 c 0,0 72.8,-23.2 89.3,-35.7 16.5,-12.5 49.6,-34.3 59.9,-34.6 7.8,-0.2 24.4,9.1 37.5,10.3 15.5,1.4 32.7,1.5 36.4,3.3 3.7,1.8 34.9,26.5 43,32"
   class="st0" />
</g>
<style
   type="text/css"
   id="style19">
	.st0{fill:none;stroke:#353C4F;stroke-linecap:round;stroke-miterlimit:10;}
</style><g
   transform="matrix(1.3929429,0,0,1,-634.33628,-337.09049)"
   id="g23">
	<path
   style="fill:none;stroke:#353c4f;stroke-linecap:round;stroke-miterlimit:10"
   inkscape:connector-curvature="0"
   class="st0"
   d="m 1463.9,557.1 c -84,0 -84,-33.7 -168,-33.7 -84,0 -84,33.7 -168,33.7 -84,0 -84,-33.7 -168,-33.7 -84,0 -84,33.7 -168,33.7 -84,0 -84,-33.7 -168,-33.7 -84,0 -84,33.7 -168,33.7"
   id="path21" />
</g><style
   type="text/css"
   id="style85">
	.st0{fill:#FFFFFF;stroke:#353C4F;stroke-width:0.9409;stroke-linecap:round;stroke-linejoin:round;stroke-miterlimit:10;}
	.st1{fill:#FFFFFF;stroke:#353C4F;stroke-linecap:round;stroke-linejoin:round;stroke-miterlimit:10;}
	.st2{fill:#F5683F;}
	.st3{fill:#F5F5F5;}
	.st4{fill:none;stroke:#353C4F;stroke-width:0.9409;stroke-linecap:round;stroke-linejoin:round;stroke-miterlimit:10;}
	.st5{fill:#353C4F;}
	.st6{fill:none;stroke:#353C4F;stroke-linecap:round;stroke-linejoin:round;stroke-miterlimit:10;}
	.st7{fill:none;stroke:#353C4F;stroke-miterlimit:10;}
	.st8{fill:#FFFFFF;}
	.st9{fill:#5EB866;}
	.st10{fill:#5EB866;stroke:#353C4F;stroke-miterlimit:10;}
	.st11{fill:none;stroke:#353C4F;stroke-linecap:round;stroke-miterlimit:10;}
</style><style
   type="text/css"
   id="style65">
	.st0{fill:#353C4F;}
	.st1{fill:#EC653B;}
	.st2{fill:none;stroke:#353C4F;stroke-linecap:round;stroke-linejoin:round;stroke-miterlimit:10;}
	.st3{fill:none;stroke:#353C4F;stroke-miterlimit:10;}
	.st4{fill:#FFFFFF;stroke:#353C4F;stroke-linecap:round;stroke-linejoin:round;stroke-miterlimit:10;}
	.st5{fill:none;stroke:#353C4F;stroke-width:0.9409;stroke-linecap:round;stroke-linejoin:round;stroke-miterlimit:10;}
	.st6{fill:#ECECEC;stroke:#353C4F;stroke-linecap:round;stroke-linejoin:round;stroke-miterlimit:10;}
	.st7{fill:#F5F5F5;stroke:#353C4F;stroke-linecap:round;stroke-linejoin:round;stroke-miterlimit:10;}
	.st8{fill:#F5F5F5;}
	.st9{fill:#5FB565;stroke:#353C4F;stroke-miterlimit:10;}
	.st10{fill:#FFFFFF;}
	.st11{fill:#5FB565;}
	.st12{fill:#FFFFFF;stroke:#353C4F;stroke-width:0.9409;stroke-linecap:round;stroke-linejoin:round;stroke-miterlimit:10;}
</style><rect
   style="fill:#ffffff"
   y="177.25798"
   x="757.62158"
   height="58.37838"
   width="334.24432"
   id="rect912" /><g
   transform="matrix(0.72972203,0,0,0.72972203,1300.7852,185.58766)"
   id="g903"><path
     class="st1"
     d="m -291.52472,86.988981 h 124.4 c 0,0 50.2,8.3 20.7,25.699999 -22.7,13.4 -85.3,10.5 -154.4,35.9 -69.1,25.3 -209.8,13.9 -306.7,16.3 -96.8,2.4 -274.4,-26.5 -287.7,-28.3 -30.4,-4.1 -111.69998,-33.9 -104.7,-45.899999 4.8,-8.3 708.4,-3.7 708.4,-3.7 z"
     id="path6-2"
     inkscape:connector-curvature="0"
     style="fill:#f5f5f5;stroke:none" /><path
     class="st5"
     d="M -892.12472,121.08898"
     id="path30"
     inkscape:connector-curvature="0"
     style="fill:none;stroke:#353c4f;stroke-width:0.9409;stroke-linecap:round;stroke-linejoin:round;stroke-miterlimit:10" /><path
     class="st6"
     d="M -385.62472,76.688981"
     id="path76"
     inkscape:connector-curvature="0"
     style="fill:none;stroke:#353c4f;stroke-width:0.9409;stroke-linecap:round;stroke-linejoin:round;stroke-miterlimit:10" /><path
     class="st6"
     d="M -303.02472,76.688981"
     id="path78"
     inkscape:connector-curvature="0"
     style="fill:none;stroke:#353c4f;stroke-width:0.9409;stroke-linecap:round;stroke-linejoin:round;stroke-miterlimit:10" /><path
     class="st6"
     d="M -636.12472,76.688981"
     id="path80"
     inkscape:connector-curvature="0"
     style="fill:none;stroke:#353c4f;stroke-width:0.9409;stroke-linecap:round;stroke-linejoin:round;stroke-miterlimit:10" /><path
     class="st4"
     d="m -464.02472,-29.011015 c 1.7,-0.2 3.4,10.7 3.4,14.5"
     id="path132"
     inkscape:connector-curvature="0"
     style="fill:none;stroke:#353c4f;stroke-linecap:round;stroke-linejoin:round;stroke-miterlimit:10" /><path
     class="st4"
     d="m -465.62472,-14.511015 c 0,0 -0.2,-14.4 1.6,-14.6"
     id="path134"
     inkscape:connector-curvature="0"
     style="fill:none;stroke:#353c4f;stroke-linecap:round;stroke-linejoin:round;stroke-miterlimit:10" /><path
     class="st7"
     d="m -640.52472,-35.211015 c 1,-0.9 3.4,-2.3 4.4,-3.8 0.8,-1.2 1.7,-12.9 2.4,-17.6 0,-0.9 1.5,-6.7 4.6,-8.3 2.2,-1.2 7.1,-2 11.9,1.1 5,3.3 4.1,13.8 4.2,15 0.1,1.2 -1.3,5.9 -2.5,6.3 -2.2,0.7 -4,-0.5 -4.4,-0.5 -0.4,0 -0.9,2.4 -0.5,3.8 0.5,1.4 5.4,8.5 7.2,11.3 2,3 5.5,13.4 5.5,13.4 l -35.6,0.1 c 0.1,0 -0.2,-18 2.8,-20.8 z"
     id="path136"
     inkscape:connector-curvature="0"
     style="fill:#ececec;stroke:#353c4f;stroke-linecap:round;stroke-linejoin:round;stroke-miterlimit:10" /><path
     class="st8"
     d="m -659.52472,-15.011015 38.6,-0.1 c 0,0 -2.4,-10.5 -4.8,-13.2 -1.2,-1.4 -7.5,-9.6 -7.9,-11 -0.5,-1.4 0.1,-3.8 0.5,-3.8 0.4,0 3.6,1.8 5.2,0.5 0.9,-0.8 1.7,-6.5 1.7,-6.5 l 1.6,-0.9 -2.2,-4.5 c 0,0 0.4,-7 -3.2,-9.3 -0.1,0 -3.8,1.5 -7.6,3.3 -4.2,2 -8.6,4.4 -9.2,4.8 0.2,1.8 0.5,3 1.2,4.3 1.8,3.6 2.6,6.7 2.6,6.7 0,0 0.4,2.1 -1.1,3.2 -1.5,1.1 -7.8,4.7 -9.7,7.3 -3.9,5.2 -5.7,19.2 -5.7,19.2 z"
     id="path138"
     inkscape:connector-curvature="0"
     style="fill:#f5f5f5;stroke:#353c4f;stroke-linecap:round;stroke-linejoin:round;stroke-miterlimit:10" /><path
     class="st3"
     d="m -278.42472,16.488981 c 0,0 4.4,4.3 7.7,9.9 2.2,3.7 2,7.4 1.6,9.5 -0.2,0.9 -1.1,1.5 -2,1.2 -2.5,-0.8 -8.1,-2.8 -16.6,-6.3 -11,-4.6 -32,-19.5 -36,-22.2999999 -0.4,-0.3 -0.6,-0.8 -0.6,-1.3 v 0 c 0,-0.9 0.8,-1.599996 1.7,-1.599996 4.8,0.5 18.7,1.999996 25.1,3.899996 7.8,2.1999999 19.1,6.9999999 19.1,6.9999999 z"
     id="path140"
     inkscape:connector-curvature="0"
     style="fill:#ec653b;stroke:#353c4f;stroke-miterlimit:10" /><path
     class="st6"
     d="m -712.52472,69.088981 c 0,0 -16.7,-0.4 -27.8,-1.5 -1.8,-0.2 -3.5,-0.4 -5,-0.6 -7.7,-1 -13.1,-8.2 -11.9,-15.9 l 7.4,-48.5999959 c 0,0 3,-25.1000001 73.8,-57.5000001 70.8,-32.4 119,-29.1 161,-23.5 42,5.6 119.5,56.6 119.5,56.6 0,0 50.3,8.3 92,24.4000001 41.7,16.0999959 34.4,34.4999959 34.4,34.4999959 0,0 0,0 4.3,5.2 4.3,5.2 3.8,28.7 3.8,28.7 h -55.9"
     id="path142"
     inkscape:connector-curvature="0"
     style="fill:none;stroke:#353c4f;stroke-width:0.9409;stroke-linecap:round;stroke-linejoin:round;stroke-miterlimit:10" /><path
     class="st6"
     d="M -389.02472,78.788981"
     id="path144"
     inkscape:connector-curvature="0"
     style="fill:none;stroke:#353c4f;stroke-width:0.9409;stroke-linecap:round;stroke-linejoin:round;stroke-miterlimit:10" /><path
     class="st6"
     d="M -306.42472,78.788981"
     id="path146"
     inkscape:connector-curvature="0"
     style="fill:none;stroke:#353c4f;stroke-width:0.9409;stroke-linecap:round;stroke-linejoin:round;stroke-miterlimit:10" /><path
     class="st6"
     d="M -639.52472,78.788981"
     id="path148"
     inkscape:connector-curvature="0"
     style="fill:none;stroke:#353c4f;stroke-width:0.9409;stroke-linecap:round;stroke-linejoin:round;stroke-miterlimit:10" /><circle
     class="st0"
     cx="681.42474"
     cy="70.588989"
     r="33.5"
     id="circle150"
     transform="scale(-1,1)"
     style="fill:#353c4f" /><path
     class="st3"
     d="m -749.82472,2.2889851 h 8.9 l -4.3,31.2999959 c -0.5,2.2 -3,3.7 -5.8,3.5 l -4.8,-0.4"
     id="path152"
     inkscape:connector-curvature="0"
     style="fill:#ec653b;stroke:#353c4f;stroke-miterlimit:10" /><circle
     class="st0"
     cx="347.7247"
     cy="70.588989"
     r="33.5"
     id="circle154"
     transform="scale(-1,1)"
     style="fill:#353c4f" /><circle
     class="st1"
     cx="347.7247"
     cy="70.588989"
     r="18.299999"
     id="circle156"
     transform="scale(-1,1)"
     style="fill:#f5f5f5" /><path
     class="st4"
     d="M -722.12472,69.088981"
     id="path158"
     inkscape:connector-curvature="0"
     style="fill:none;stroke:#353c4f;stroke-linecap:round;stroke-linejoin:round;stroke-miterlimit:10" /><path
     class="st4"
     d="m -395.52472,-21.911015 c 0,0 -19,1 -28,-4 -5.4,-3 -28.9,-21.1 -52.1,-35.1 -15.6,-9.4 -34.7,-16.7 -34.7,-16.7"
     id="path160"
     inkscape:connector-curvature="0"
     style="fill:none;stroke:#353c4f;stroke-linecap:round;stroke-linejoin:round;stroke-miterlimit:10" /><path
     class="st4"
     d="m -554.12472,-73.811015 c 0,0 35,-1.2 63.9,14 43.3,22.8 57.5,45.3 57.5,45.3 h -7.7"
     id="path162"
     inkscape:connector-curvature="0"
     style="fill:none;stroke:#353c4f;stroke-linecap:round;stroke-linejoin:round;stroke-miterlimit:10" /><path
     class="st4"
     d="m -562.52472,-74.011015 v 59.5 h -126.8 c -4.6,0 -6.9,-9 -5.8,-9.8 11.7,-8.5 49.2,-36.6 72.9,-42.7 27.4,-7 59.7,-7 59.7,-7 z"
     id="path164"
     inkscape:connector-curvature="0"
     style="fill:none;stroke:#353c4f;stroke-linecap:round;stroke-linejoin:round;stroke-miterlimit:10" /><path
     class="st4"
     d="m -733.02472,-20.411015 c 0,0 21.6,-3.5 38.3,-15.1 16.7,-11.6 40.6,-25.3 40.6,-25.3 l 16.4,-9.1"
     id="path166"
     inkscape:connector-curvature="0"
     style="fill:none;stroke:#353c4f;stroke-linecap:round;stroke-linejoin:round;stroke-miterlimit:10" /><line
     class="st4"
     x1="-554.12476"
     y1="-19.111015"
     x2="-554.12476"
     y2="60.289001"
     id="line168"
     style="fill:none;stroke:#353c4f;stroke-linecap:round;stroke-linejoin:round;stroke-miterlimit:10" /><path
     class="st4"
     d="m -418.52472,-6.6110149 c 0,0 4.8,24.8999959 4.3,37.4999959 -0.5,12.6 -3,29.4 -3,29.4"
     id="path170"
     inkscape:connector-curvature="0"
     style="fill:none;stroke:#353c4f;stroke-linecap:round;stroke-linejoin:round;stroke-miterlimit:10" /><path
     class="st4"
     d="m -636.02472,60.288981 c 0,0 -35.2,-64.6999959 -38.9,-75.899996 -3.8,-11.1 10.8,-30 10.8,-30"
     id="path172"
     inkscape:connector-curvature="0"
     style="fill:none;stroke:#353c4f;stroke-linecap:round;stroke-linejoin:round;stroke-miterlimit:10" /><path
     class="st5"
     d="m -538.32472,-0.71101489 h 17.4 c 2.8,0 5.1,-2.30000001 5.1,-5.10000001 v 0 h -27.6 v 0 c 0,2.8 2.3,5.10000001 5.1,5.10000001 z"
     id="path174"
     inkscape:connector-curvature="0"
     style="fill:none;stroke:#353c4f;stroke-width:0.9409;stroke-linecap:round;stroke-linejoin:round;stroke-miterlimit:10" /><path
     class="st5"
     d="m -648.22472,-0.71101489 h 17.4 c 2.8,0 5.1,-2.30000001 5.1,-5.10000001 v 0 h -27.5 v 0 c 0,2.8 2.2,5.10000001 5,5.10000001 z"
     id="path176"
     inkscape:connector-curvature="0"
     style="fill:none;stroke:#353c4f;stroke-width:0.9409;stroke-linecap:round;stroke-linejoin:round;stroke-miterlimit:10" /><line
     class="st4"
     x1="-330.02469"
     y1="5.3889699"
     x2="-393.12466"
     y2="-13.21102"
     id="line178"
     style="fill:none;stroke:#353c4f;stroke-linecap:round;stroke-linejoin:round;stroke-miterlimit:10" /><line
     class="st6"
     x1="-373.2247"
     y1="70.888977"
     x2="-647.82471"
     y2="70.888977"
     id="line180"
     style="fill:none;stroke:#353c4f;stroke-width:0.9409;stroke-linecap:round;stroke-linejoin:round;stroke-miterlimit:10" /><circle
     class="st1"
     cx="681.42474"
     cy="70.588989"
     r="18.299999"
     id="circle182"
     transform="scale(-1,1)"
     style="fill:#f5f5f5" /><line
     class="st4"
     x1="-554.12476"
     y1="-14.411017"
     x2="-554.12476"
     y2="-73.811012"
     id="line184"
     style="fill:none;stroke:#353c4f;stroke-linecap:round;stroke-linejoin:round;stroke-miterlimit:10" /><path
     class="st4"
     d="M -506.52472,-17.811015"
     id="path186"
     inkscape:connector-curvature="0"
     style="fill:none;stroke:#353c4f;stroke-linecap:round;stroke-linejoin:round;stroke-miterlimit:10" /><path
     class="st4"
     d="M -499.32472,-17.011015"
     id="path188"
     inkscape:connector-curvature="0"
     style="fill:none;stroke:#353c4f;stroke-linecap:round;stroke-linejoin:round;stroke-miterlimit:10" /><path
     class="st9"
     d="M -547.52472,-38.711015"
     id="path190"
     inkscape:connector-curvature="0"
     style="fill:#5fb565;stroke:#353c4f;stroke-miterlimit:10" /><path
     class="st4"
     d="m -452.02472,-28.711015 c 1.2,0 7.8,2.9 7.8,5.3 0,2.3 0.1,5.7 0.2,6.9 0.1,2.1 -2.8,5.2 -7.9,5.2 -5.1,0 -6.7,0.3 -7,-4.3 -0.3,-4.6 -0.6,-12.4 1.5,-13.1 2,-0.8 5.4,0 5.4,0 z"
     id="path192"
     inkscape:connector-curvature="0"
     style="fill:none;stroke:#353c4f;stroke-linecap:round;stroke-linejoin:round;stroke-miterlimit:10" /><path
     class="st4"
     d="m -444.12472,-21.011015 c 0,0 2,2.8 2.9,4.7 0.8,1.9 0.8,1.8 0.8,1.8 l -4.3,-0.1"
     id="path194"
     inkscape:connector-curvature="0"
     style="fill:none;stroke:#353c4f;stroke-linecap:round;stroke-linejoin:round;stroke-miterlimit:10" /><path
     class="st10"
     d="m -535.22472,-43.811015 c 0,0 0.7,-3.3 6.3,-3.9 1.5,-0.2 3.1,-0.1 3.7,0 l 0.7,-0.9 -7.3,-4.2 c 0,0 5,-3.7 6.1,-8.8 0.8,-3.5 2.2,-8.2 3.4,-10.1 1.2,-2 3.3,-4.7 10.5,-3.2 8.6,1.7 9.7,10.4 8.6,16.1 -1.1,5.6 -2.5,6.9 -2.8,8.9 -0.4,3 0.7,6.9 0.7,6.9 0,0 -8.6,-0.9 -9.9,-0.7 -1.3,0.1 -2.6,-0.1 -2.6,-0.1 l 5.2,10 -7.2,-3.4 -6.3,-7.1 z"
     id="path196"
     inkscape:connector-curvature="0"
     style="fill:#ffffff" /><path
     class="st11"
     d="m -537.82472,-14.511015 c 0.1,-12.1 -1.9,-16.6 -1.9,-16.6 0,0 -15.1,-9.5 -16.1,-10.9 -4.7,-6.9 -6.8,-15.8 -6.8,-15.8 l -2.8,-12.4 8.6,-2.8 c 0,0 4.2,8.8 7.3,18.3 1.5,4.5 9.4,4.9 12.7,5.7 6,0 9,2 9,2 1.3,0.4 3.6,3.8 6.6,7.2 3.1,3.3 7.4,4.8 7.4,4.8 0,0 0.6,1.4 0,0 -0.6,-1.4 -3,-5.3 -3.5,-6.7 l 8.7,13.4 c 0,0 8.3,9.9 2.1,14.5 -14.4,-0.7 -31.3,-0.7 -31.3,-0.7 z"
     id="path198"
     inkscape:connector-curvature="0"
     style="fill:#5fb565" /><path
     class="st6"
     d="M -528.82472,-45.911015"
     id="path200"
     inkscape:connector-curvature="0"
     style="fill:none;stroke:#353c4f;stroke-width:0.9409;stroke-linecap:round;stroke-linejoin:round;stroke-miterlimit:10" /><path
     class="st6"
     d="m -516.62472,-50.611015 c 0,0 -4.1,1.7 -6.7,-1.1 -2.6,-2.8 -2.4,-6.4 -1.7,-11.3 0.7,-4.9 1.9,-7.2 1.9,-7.2"
     id="path202"
     inkscape:connector-curvature="0"
     style="fill:none;stroke:#353c4f;stroke-width:0.9409;stroke-linecap:round;stroke-linejoin:round;stroke-miterlimit:10" /><line
     class="st6"
     x1="-523.02472"
     y1="-51.011021"
     x2="-524.82471"
     y2="-47.511021"
     id="line204"
     style="fill:none;stroke:#353c4f;stroke-width:0.9409;stroke-linecap:round;stroke-linejoin:round;stroke-miterlimit:10" /><path
     class="st6"
     d="M -564.12472,-68.511015"
     id="path206"
     inkscape:connector-curvature="0"
     style="fill:none;stroke:#353c4f;stroke-width:0.9409;stroke-linecap:round;stroke-linejoin:round;stroke-miterlimit:10" /><path
     class="st2"
     d="m -556.72472,-73.011015 c -0.2,-2.2 -0.3,-3.7 -0.3,-3.7 l 0.4,-5.1 -4.4,-11.5 c 0,0 -0.6,0.4 -0.7,0.6 -0.1,0.2 -0.1,1.1 -0.1,1.1 0,0 -1.2,0.8 -1.3,1.2 -0.1,0.4 -0.4,0.4 -0.1,2.6 0.3,2.2 2.2,6.5 2.2,6.5 0,0 -2.1,-2.7 -2.3,-2.4 -0.2,0.3 -0.1,2.3 0.5,3.4 0.6,1.1 1.8,3.3 1.8,3.3 0,0 -0.9,2.2 -1.1,5.5"
     id="path208"
     inkscape:connector-curvature="0"
     style="fill:#ffffff;stroke:#353c4f;stroke-linecap:round;stroke-linejoin:round;stroke-miterlimit:10" /><path
     class="st6"
     d="m -513.22472,-43.611015 8.1,0.8 c 0,0 -1.1,-3.9 -0.7,-7 0.3,-2.1 1.7,-3.3 2.8,-9 1.1,-5.8 0,-14.5 -8.7,-16.3 -7.3,-1.5 -10.6,2.9 -10.6,2.9"
     id="path210"
     inkscape:connector-curvature="0"
     style="fill:none;stroke:#353c4f;stroke-width:0.9409;stroke-linecap:round;stroke-linejoin:round;stroke-miterlimit:10" /><path
     class="st6"
     d="m -509.82472,-59.611015 c 0,0 -0.6,-1.1 -1.6,-3.3 -1,-2.2 -1.8,-4.9 -1.8,-4.9"
     id="path212"
     inkscape:connector-curvature="0"
     style="fill:none;stroke:#353c4f;stroke-width:0.9409;stroke-linecap:round;stroke-linejoin:round;stroke-miterlimit:10" /><path
     class="st6"
     d="m -512.02472,-60.411015 c 0,0 -2.8,-2.4 -3.8,-4.6 -1.1,-2.2 -1.8,-4.6 -1.8,-4.6"
     id="path214"
     inkscape:connector-curvature="0"
     style="fill:none;stroke:#353c4f;stroke-width:0.9409;stroke-linecap:round;stroke-linejoin:round;stroke-miterlimit:10" /><path
     class="st6"
     d="m -525.52472,-49.011015 -6.3,-3.7 c 0,0 3,-2.2 4.4,-4.6 0.9,-1.6 2.5,-6.6 2.5,-6.6"
     id="path216"
     inkscape:connector-curvature="0"
     style="fill:none;stroke:#353c4f;stroke-width:0.9409;stroke-linecap:round;stroke-linejoin:round;stroke-miterlimit:10" /><path
     class="st6"
     d="m -530.22472,-44.211015 c 0,0 3.1,2.4 0,8.6"
     id="path218"
     inkscape:connector-curvature="0"
     style="fill:none;stroke:#353c4f;stroke-width:0.9409;stroke-linecap:round;stroke-linejoin:round;stroke-miterlimit:10" /><path
     class="st6"
     d="M -556.32472,-72.911015"
     id="path220"
     inkscape:connector-curvature="0"
     style="fill:none;stroke:#353c4f;stroke-width:0.9409;stroke-linecap:round;stroke-linejoin:round;stroke-miterlimit:10" /><path
     class="st6"
     d="M -517.32472,-42.811015"
     id="path222"
     inkscape:connector-curvature="0"
     style="fill:none;stroke:#353c4f;stroke-width:0.9409;stroke-linecap:round;stroke-linejoin:round;stroke-miterlimit:10" /><path
     class="st2"
     d="m -561.12472,-77.011015 c 0.4,0.4 1,0.5 1.5,0.3"
     id="path224"
     inkscape:connector-curvature="0"
     style="fill:#ffffff;stroke:#353c4f;stroke-linecap:round;stroke-linejoin:round;stroke-miterlimit:10" /><path
     class="st12"
     d="M -469.42472,-20.311015"
     id="path226"
     inkscape:connector-curvature="0"
     style="fill:#ffffff;stroke:#353c4f;stroke-width:0.9409;stroke-linecap:round;stroke-linejoin:round;stroke-miterlimit:10" /><path
     class="st12"
     d="M -468.92472,-18.611015"
     id="path228"
     inkscape:connector-curvature="0"
     style="fill:#ffffff;stroke:#353c4f;stroke-width:0.9409;stroke-linecap:round;stroke-linejoin:round;stroke-miterlimit:10" /><path
     class="st12"
     d="M -467.62472,-15.111015"
     id="path230"
     inkscape:connector-curvature="0"
     style="fill:#ffffff;stroke:#353c4f;stroke-width:0.9409;stroke-linecap:round;stroke-linejoin:round;stroke-miterlimit:10" /><path
     class="st2"
     d="m -463.12472,-27.311015 c 0,0 0.2,-0.5 0.8,-0.5 1.2,-0.3 3.4,-0.4 3.3,0.5 0.2,0.9 0.2,0.9 0,1.8 0,0 0.2,-3 2.9,-3.7 -0.2,-1.3 -3.1,-1.4 -4.3,-1.6 -2.5,-0.4 -6,0.6 -6,0.6 l -1.3,0.1 -0.3,1.1 1.1,3.4 c 0,0 1.6,1.5 2.2,1.5 0.6,0 2.9,0.5 2.6,-0.9 0.1,0 -0.3,-2.3 -1,-2.3 z"
     id="path232"
     inkscape:connector-curvature="0"
     style="fill:#ffffff;stroke:#353c4f;stroke-linecap:round;stroke-linejoin:round;stroke-miterlimit:10" /><path
     class="st11"
     d="m -517.32472,-42.411015 c 0,0 1,-0.4 9.3,6.8 7.7,6.6 11.5,9.2 13.9,9.7 3.5,0.7 27.5,-5 27.5,-5 v 8.2 c 0,0 -19.2,8.8 -24.3,8.3 -2,-0.2 -3.9,0.2 -5.7,0.2 -2.7,-0.1 -6,-1.9 -8.1,-2.3"
     id="path234"
     inkscape:connector-curvature="0"
     style="fill:#5fb565" /><path
     class="st4"
     d="m -508.52472,-29.011015 c 0,0 1.4,3.6 3.4,5.6 2,2 1.3,7.7 -1.4,8.9"
     id="path236"
     inkscape:connector-curvature="0"
     style="fill:none;stroke:#353c4f;stroke-linecap:round;stroke-linejoin:round;stroke-miterlimit:10" /><path
     class="st6"
     d="m -537.82472,-14.511015 c 0.1,-12.1 -1.9,-16.6 -1.9,-16.6 0,0 -6.5,-3.2 -16.1,-10.9 -3.4,-4.7 -7.6,-18.1 -7.6,-18.1 l -2,-10 9,-2.9 c 0,0 3.6,12.1 7,18.4 2.3,2.3 4,5.4 13.4,5.7 5.4,0.4 8.2,2 8.2,2 1.3,0.4 3.6,3.8 6.6,7.2 3.1,3.3 7.8,5 7.8,5 0,0 0,0 -0.6,-1.4 -0.6,-1.4 -3,-5.3 -3.5,-6.7 -0.3,-1.1 0.3,-3.2 1.7,-5.6 1.3,-2.2 4,-5.1 4,-5.1 0,0 1.1,2.1 2.8,-1.1 1.7,-3.3 0,-3.3 0,-3.3"
     id="path238"
     inkscape:connector-curvature="0"
     style="fill:none;stroke:#353c4f;stroke-width:0.9409;stroke-linecap:round;stroke-linejoin:round;stroke-miterlimit:10" /><line
     class="st4"
     x1="-460.62473"
     y1="-14.511024"
     x2="-548.62476"
     y2="-14.511024"
     id="line240"
     style="fill:none;stroke:#353c4f;stroke-linecap:round;stroke-linejoin:round;stroke-miterlimit:10" /></g></svg>
