<?xml version="1.0" encoding="utf-8"?>
<!-- Generator: Adobe Illustrator 24.0.3, SVG Export Plug-In . SVG Version: 6.00 Build 0)  -->
<svg version="1.1" id="Calque_1" xmlns="http://www.w3.org/2000/svg" xmlns:xlink="http://www.w3.org/1999/xlink" x="0px" y="0px"
	 width="168px" height="52px" viewBox="0 0 168 52" style="enable-background:new 0 0 168 52;" xml:space="preserve">
<style type="text/css">
	.st0{fill:#13A569;}
	.st1{fill:#FFFFFF;}
	.st2{font-family:'Ubuntu-Bold';}
	.st3{font-size:12px;}
</style>
<g>
	<path class="st0" d="M167,26c0,13.8-11.2,25-25,25H26C12.2,51,1,39.8,1,26l0,0C1,12.2,12.2,1,26,1h116C155.8,1,167,12.2,167,26
		L167,26z"/>
</g>
<text transform="matrix(1 0 0 1 26 29.8423)" class="st1 st2 st3">Publier une annonce</text>
</svg>
