<?xml version="1.0" encoding="UTF-8" standalone="no"?>
<svg
   xmlns:dc="http://purl.org/dc/elements/1.1/"
   xmlns:cc="http://creativecommons.org/ns#"
   xmlns:rdf="http://www.w3.org/1999/02/22-rdf-syntax-ns#"
   xmlns:svg="http://www.w3.org/2000/svg"
   xmlns="http://www.w3.org/2000/svg"
   xmlns:sodipodi="http://sodipodi.sourceforge.net/DTD/sodipodi-0.dtd"
   xmlns:inkscape="http://www.inkscape.org/namespaces/inkscape"
   inkscape:version="0.92.3 (2405546, 2018-03-11)"
   sodipodi:docname="avatar.svg"
   id="svg110"
   version="1.1"
   viewBox="0 0 121.15083 122.02371"
   height="122.0237"
   width="121.15083">
  <metadata
     id="metadata114">
    <rdf:RDF>
      <cc:Work
         rdf:about="">
        <dc:format>image/svg+xml</dc:format>
        <dc:type
           rdf:resource="http://purl.org/dc/dcmitype/StillImage" />
        <dc:title></dc:title>
      </cc:Work>
    </rdf:RDF>
  </metadata>
  <sodipodi:namedview
     inkscape:current-layer="g162"
     inkscape:window-maximized="1"
     inkscape:window-y="0"
     inkscape:window-x="1920"
     inkscape:cy="55.045102"
     inkscape:cx="91.325287"
     inkscape:zoom="1.6701291"
     showgrid="false"
     id="namedview112"
     inkscape:window-height="1015"
     inkscape:window-width="1920"
     inkscape:pageshadow="2"
     inkscape:pageopacity="0"
     guidetolerance="10"
     gridtolerance="10"
     objecttolerance="10"
     borderopacity="1"
     bordercolor="#666666"
     pagecolor="#ffffff" />
  <defs
     id="defs12">
    <style
       id="style10">.a{fill:#353d4d;}.b{fill:#1e92d1;}</style>
  </defs>
  <g
     id="g108"
     transform="translate(-146.83521,-163.41889)">
    <g
       id="g86"
       transform="translate(170.652,236.143)">
      <g
         id="g162"
         transform="translate(14.041477,-203.02922)">
	
	
	
</g>
      <path
         id="path84"
         d="m 36.758612,-72.724107 a 60.575418,61.011854 0 1 0 60.575437,61.00721 60.575418,61.011854 0 0 0 -60.575437,-61.00721 z m 3.565295,25.71485 h 5.78928 l 24.800332,42.8573402 -5.78467,3.37508005 -21.917218,-37.83643025 -10.776541,18.63735 -5.775453,-3.38904 z M 1.3154031,12.888393 -4.4462229,9.4924032 10.99493,-17.113807 l 0.244293,-0.4248 h 5.955217 a 18.766764,18.901975 0 0 0 28.029152,-0.80547 l 4.943472,4.5102 a 25.427202,25.610401 0 0 1 -35.261142,3.27296 l -2.383008,4.1179102 h 0.02766 z m 73.1150159,0 H 13.331846 V 6.1567632 h 61.096263 z"
         class="b"
         inkscape:connector-curvature="0"
         style="fill:#1e92d1;stroke-width:2.31293726" />
    </g>
  </g>
  <style
     id="style154"
     type="text/css">
	.st0{fill:#363e4e;}
</style>
</svg>
