<svg xmlns="http://www.w3.org/2000/svg" width="36.81" height="29.994" viewBox="0 0 36.81 29.994">
<defs><style>.a{fill:#353c4f;}</style></defs>
<g transform="translate(0 -6.4)"><g transform="translate(12.427 7.173)">
<path class="a" d="M33.558,11.192a10.476,10.476,0,0,0-8.862,0l-1-2.1a12.573,12.573,0,0,1,10.8,0Z" transform="translate(-23.7 -7.875)"/></g>
<g transform="translate(23.544 20.873)"><path class="a" d="M46.158,43.543,44.9,41.6a9.994,9.994,0,0,0,3.146-3.3A10.423,10.423,0,0,0,49.462,34l2.307.21a13.188,13.188,0,0,1-1.73,5.244A12.6,12.6,0,0,1,46.158,43.543Z" transform="translate(-44.9 -34)"/></g><g transform="translate(5.139 20.977)"><path class="a" d="M15.411,43.639A12.745,12.745,0,0,1,9.8,34.41l2.307-.21a10.423,10.423,0,0,0,1.416,4.3,9.81,9.81,0,0,0,3.146,3.251Z" transform="translate(-9.8 -34.2)"/></g><g transform="translate(11.326 24.333)"><g transform="translate(2.307)"><path class="a" d="M29.985,48.57a3.985,3.985,0,1,1,3.985-3.985A3.983,3.983,0,0,1,29.985,48.57Zm0-5.663a1.678,1.678,0,1,0,1.678,1.678A1.657,1.657,0,0,0,29.985,42.907Z" transform="translate(-26 -40.6)"/></g>
<g transform="translate(0 8.167)">
<path class="a" d="M22.911,60.068,21.6,58.181a10.956,10.956,0,0,1,12.637,0l-1.363,1.888A8.674,8.674,0,0,0,22.911,60.068Z" transform="translate(-21.6 -56.175)"/></g></g><g transform="translate(0 6.4)"><g transform="translate(2.36)"><path class="a" d="M8.485,14.37a3.985,3.985,0,1,1,3.985-3.985A3.983,3.983,0,0,1,8.485,14.37Zm0-5.663a1.678,1.678,0,1,0,1.678,1.678A1.69,1.69,0,0,0,8.485,8.707Z" transform="translate(-4.5 -6.4)"/></g><g transform="translate(0 8.167)"><path class="a" d="M1.363,25.868,0,23.981a10.956,10.956,0,0,1,12.637,0l-1.363,1.888A8.591,8.591,0,0,0,1.363,25.868Z" transform="translate(0 -21.975)"/></g></g>
<g transform="translate(24.173 6.4)"><g transform="translate(2.307)">
<path class="a" d="M54.485,14.37a3.985,3.985,0,1,1,3.985-3.985A3.918,3.918,0,0,1,54.485,14.37Zm0-5.663a1.678,1.678,0,1,0,1.678,1.678A1.625,1.625,0,0,0,54.485,8.707Z" transform="translate(-50.5 -6.4)"/></g><g transform="translate(0 8.167)"><path class="a" d="M47.463,25.868,46.1,23.981a10.956,10.956,0,0,1,12.637,0l-1.363,1.888A8.591,8.591,0,0,0,47.463,25.868Z" transform="translate(-46.1 -21.975)"/></g></g></g></svg>